[
    {
        "name":"Behesht madaran",
        "address":"Tehran Province, Tehran, District 3, Haghani Hwy, Iran",
        "Latitude":35.745670,
        "ongitude":51.438838

    },
    {
        "name":"Mahsa sedighi",
        "address":"Tehran, خیابان اندیشه پنجم،تهران،، Iran",
        "Latitude":35.728035,
        "ongitude":51.441778

    },
    {
        "name":"fatemeh",
        "address":"Tehran, خیابان اندیشه پنجم،تهران،، Iran",
        "Latitude":35.758035,
        "ongitude":51.421778

    },
    {
        "name":"kntu",
        "address":"Tehran Province, Tehran, District 7, Bagheri St, Iran",
        "Latitude":35.740441,
        "ongitude":51.448652

    }
]